<svg xmlns="http://www.w3.org/2000/svg" width="14" height="24" viewBox="0 0 14 24">
  <g id="dollar-sign" transform="translate(1 1)">
    <line id="Ligne_26" data-name="Ligne 26" y2="22" transform="translate(6)" fill="none" stroke="#38b475" stroke-linecap="round" stroke-linejoin="round" stroke-width="2"/>
    <path id="Tracé_470" data-name="Tracé 470" d="M17,5H9.5a3.5,3.5,0,0,0,0,7h5a3.5,3.5,0,1,1,0,7H6" transform="translate(-6 -1)" fill="none" stroke="#38b475" stroke-linecap="round" stroke-linejoin="round" stroke-width="2"/>
  </g>
</svg>
