<svg id="Creerfacturesit" xmlns="http://www.w3.org/2000/svg" width="40" height="40" viewBox="0 0 40 40">
  <g id="Groupe_91" data-name="Groupe 91">
    <g id="Ellipse_359" data-name="Ellipse 359" fill="none" stroke="#feb969" stroke-width="1">
      <circle cx="20" cy="20" r="20" stroke="none"/>
      <circle cx="20" cy="20" r="19.5" fill="none"/>
    </g>
    <g id="factureSituation" transform="translate(12 10)">
      <g id="Groupe_421" data-name="Groupe 421">
        <path id="Tracé_530" data-name="Tracé 530" d="M14,2H6A2.006,2.006,0,0,0,4,4V20a2.006,2.006,0,0,0,2,2H18a2.006,2.006,0,0,0,2-2V8Z" transform="translate(-4 -2)" fill="none" stroke="#feb969" stroke-linecap="round" stroke-linejoin="round" stroke-width="2"/>
        <path id="Tracé_531" data-name="Tracé 531" d="M14,2V8h6" transform="translate(-4 -2)" fill="none" stroke="#feb969" stroke-linecap="round" stroke-linejoin="round" stroke-width="2"/>
      </g>
      <g id="Groupe_422" data-name="Groupe 422" transform="translate(4 7.7)">
        <path id="Tracé_532" data-name="Tracé 532" d="M9.8,19a5.226,5.226,0,0,1-1.5-.7.864.864,0,0,1-.3-.6c0-.2.1-.3.2-.5s.2-.2.4-.2.3.1.5.2a3.379,3.379,0,0,0,1.2.6,5.9,5.9,0,0,0,1.4.2,2.81,2.81,0,0,0,1.5-.3,1.231,1.231,0,0,0,.5-1,1.02,1.02,0,0,0-.5-.8,4.3,4.3,0,0,0-1.6-.5,14.5,14.5,0,0,1-1.9-.6,2.012,2.012,0,0,1-1.1-.9,1.844,1.844,0,0,1-.4-1.3A2.755,2.755,0,0,1,10,10.1a5.847,5.847,0,0,1,1.9-.4,4.454,4.454,0,0,1,3.1,1c.1.1.2.2.2.3s.1.2.1.4a.764.764,0,0,1-.2.5.367.367,0,0,1-.3.1h-.2c-.1,0-.2-.1-.3-.1a3,3,0,0,0-1.1-.6,4.438,4.438,0,0,0-1.3-.2,1.955,1.955,0,0,0-1.4.4,1.016,1.016,0,0,0-.5,1,.891.891,0,0,0,.5.8,3.726,3.726,0,0,0,1.6.5,14.5,14.5,0,0,1,1.9.6,2.421,2.421,0,0,1,1.1.8,1.844,1.844,0,0,1,.4,1.3A2.755,2.755,0,0,1,13.7,19a5.847,5.847,0,0,1-1.9.4A11.8,11.8,0,0,1,9.8,19Z" transform="translate(-8 -9.7)" fill="#feb969"/>
      </g>
    </g>
  </g>
</svg>
