<svg xmlns="http://www.w3.org/2000/svg" width="40" height="40" viewBox="0 0 40 40">
  <g id="Fiche_intervention" data-name="Fiche intervention" transform="translate(-12318 -3121)">
    <g id="Groupe_1017" data-name="Groupe 1017" transform="translate(12318 3121)">
      <g id="Ellipse_359" data-name="Ellipse 359" fill="none" stroke="#38b475" stroke-width="1">
        <circle cx="20" cy="20" r="20" stroke="none"/>
        <circle cx="20" cy="20" r="19.5" fill="none"/>
      </g>
    </g>
    <g id="Calque_2" data-name="Calque 2" transform="translate(12329 3129)">
      <g id="Calque_1" data-name="Calque 1">
        <text id="I" transform="translate(6.95 18.36)" fill="#38b475" font-size="13.19" font-family="Nunito-Bold, Nunito" font-weight="700"><tspan x="0" y="0">I</tspan></text>
        <path id="Tracé_1274" data-name="Tracé 1274" d="M11,1H3A2,2,0,0,0,1,3V19a2,2,0,0,0,2,2H15a2,2,0,0,0,2-2V7Z" fill="none" stroke="#38b475" stroke-linecap="round" stroke-linejoin="round" stroke-width="2"/>
        <path id="Tracé_1275" data-name="Tracé 1275" d="M11,1V7h6" fill="none" stroke="#38b475" stroke-linecap="round" stroke-linejoin="round" stroke-width="2"/>
      </g>
    </g>
  </g>
</svg>
